[
	{
		"url": "https://www.allrecipes.com/recipe/32521/iced-mochas/",
		"id": "32521",
		"source": ""
	},
	{
		"url": "https://www.allrecipes.com/recipe/210084/chocolate-syrup/",
		"id": "210084"
	}
]